<?xml version="1.0"?>
<!--
Copyright 2018 Woods Hole Oceanographic Institution

Redistribution and use in source and binary forms, with or without
modification, are permitted provided that the following conditions are met:

1. Redistributions of source code must retain the above copyright notice,
   this list of conditions and the following disclaimer.

2. Redistributions in binary form must reproduce the above copyright notice,
   this list of conditions and the following disclaimer in the documentation
   and/or other materials provided with the distribution.

3. Neither the name of the copyright holder nor the names of its contributors
   may be used to endorse or promote products derived from this software
   without specific prior written permission.

THIS SOFTWARE IS PROVIDED BY THE COPYRIGHT HOLDERS AND CONTRIBUTORS "AS IS"
AND ANY EXPRESS OR IMPLIED WARRANTIES, INCLUDING, BUT NOT LIMITED TO, THE
IMPLIED WARRANTIES OF MERCHANTABILITY AND FITNESS FOR A PARTICULAR PURPOSE
ARE DISCLAIMED. IN NO EVENT SHALL THE COPYRIGHT HOLDER OR CONTRIBUTORS BE
LIABLE FOR ANY DIRECT, INDIRECT, INCIDENTAL, SPECIAL, EXEMPLARY, OR
CONSEQUENTIAL DAMAGES (INCLUDING, BUT NOT LIMITED TO, PROCUREMENT OF
SUBSTITUTE GOODS OR SERVICES; LOSS OF USE, DATA, OR PROFITS; OR BUSINESS
INTERRUPTION) HOWEVER CAUSED AND ON ANY THEORY OF LIABILITY, WHETHER IN
CONTRACT, STRICT LIABILITY, OR TORT (INCLUDING NEGLIGENCE OR OTHERWISE)
ARISING IN ANY WAY OUT OF THE USE OF THIS SOFTWARE, EVEN IF ADVISED OF THE
POSSIBILITY OF SUCH DAMAGE.
-->
<robot xmlns:xacro="http://www.ros.org/wiki/xacro" name="sentry">

  <!-- Sentry main body -->
  <xacro:property name="body_mesh_file" value="package://sentry_config/mesh/sentry_body.stl"/>

  <!-- These are in mm, and come directly from running "admesh sentry_body.stl"
       and are the screwed up coordinate system that comes from the CAD model  -->
  <xacro:property name="body_mesh_min_x" value="-406.432983"/>
  <xacro:property name="body_mesh_max_x" value="406.432983"/>
  <xacro:property name="body_mesh_min_y" value="-838.406067"/>
  <xacro:property name="body_mesh_max_y" value="940.006042"/>
  <xacro:property name="body_mesh_min_z" value="-2595.685059"/>
  <xacro:property name="body_mesh_max_z" value="5.080000"/>

  <!-- Convert the body mesh to meters -->
  <xacro:property name="body_mesh_scale" value="0.001"/>

  <!-- Move the body mesh origin (ROS-coordinates) -->
  <xacro:property name="body_mesh_off_x" value="0"/>
  <xacro:property name="body_mesh_off_y" value="0"/>
  <xacro:property name="body_mesh_off_z" value="-0.0291"/>

  <!-- Wing mesh -->
  <xacro:property name="wing_mesh_file" value="package://sentry_config/mesh/sentry_wing.stl"/>

  <!-- These are in mm, and come directly from running "admesh sentry_fin.stl"
       and are the screwed up coordinate system that comes from the CAD model  -->
  <xacro:property name="wing_mesh_min_x" value="0.0"/>
  <xacro:property name="wing_mesh_max_x" value="695.383118"/>
  <xacro:property name="wing_mesh_min_y" value="-63.500000"/>
  <xacro:property name="wing_mesh_max_y" value="63.493557"/>
  <xacro:property name="wing_mesh_min_z" value="-411.784790"/>
  <xacro:property name="wing_mesh_max_z" value="175.568512"/>

  <!-- Convert the wing mesh to meters -->
  <xacro:property name="wing_mesh_scale" value="0.001"/>

  <!-- Move the origin of the wing mesh (ROS coordinates, AFTER transform) -->
  <xacro:property name="wing_mesh_off_x" value="0.1"/>
  <xacro:property name="wing_mesh_off_y" value="0"/>
  <xacro:property name="wing_mesh_off_z" value="0"/>

</robot>

