<launch>
    <!-- This launch file sets up raw and parsed loggers for a single namespace -->
    <arg name="basename"/>
    <arg name="namespace"/>

    <arg name="split_opts"/>
    <arg name="logdir"/>
    <arg name="lograw" default="true"/>

    <!-- Record everything in the namespace excluding topics named "raw" -->
    <node pkg="rosbag" type="record" name="$(arg basename)"
          args="record -o $(arg logdir)/$(arg basename) $(arg split_opts) -e '^$(arg namespace)/.*' -x '.*/raw$'"/>

    <!-- Record all "raw" topics in a namespace -->
    <node pkg="rosbag" type="record" name="raw_$(arg basename)"
          args="record -o $(arg logdir)/raw_$(arg basename) $(arg split_opts) -e '^$(arg namespace)/?.*/raw$'"
          if="$(arg lograw)"/>

</launch>
